{
  "page": 1,
  "total_results": 232,
  "total_pages": 12,
  "results": [{
    "poster_path": "/kTQ3J8oTTKofAVLYnds2cHUz9KO.jpg",
    "popularity": 78.942,
    "vote_count": 985,
    "video": false,
    "media_type": "movie",
    "id": 522938,
    "adult": false,
    "backdrop_path": "/spYx9XQFODuqEVoPpvaJI1ksAVt.jpg",
    "original_language": "en",
    "original_title": "Rambo: Last Blood",
    "genre_ids": [
      28,
      18,
      53
    ],
    "title": "Rambo: Last Blood",
    "vote_average": 5.8,
    "overview": "After fighting his demons for decades, John Rambo now lives in peace on his family ranch in Arizona, but his rest is interrupted when Gabriela, the granddaughter of his housekeeper María, disappears after crossing the border into Mexico to meet her biological father. Rambo, who has become a true father figure for Gabriela over the years, undertakes a desperate and dangerous journey to find her.",
    "release_date": "2019-09-19"
  },
    {
      "poster_path": "/gWYfUEkExdr0SLY5L2mjnhKgE4C.jpg",
      "popularity": 19.217,
      "vote_count": 1543,
      "video": false,
      "media_type": "movie",
      "id": 1370,
      "adult": false,
      "backdrop_path": "/51P7TrAJIIfrwyPwpswui42zQLq.jpg",
      "original_language": "en",
      "original_title": "Rambo III",
      "genre_ids": [
        28,
        12,
        53,
        10752
      ],
      "title": "Rambo III",
      "vote_average": 5.9,
      "overview": "Combat has taken its toll on Rambo, but he's finally begun to find inner peace in a monastery. When Rambo's friend and mentor Col. Trautman asks for his help on a top secret mission to Afghanistan, Rambo declines but must reconsider when Trautman is captured.",
      "release_date": "1988-05-24"
    },
    {
      "poster_path": "/ec1m7YgBYb4os06OSNW3QBaNYqZ.jpg",
      "popularity": 18.5,
      "vote_count": 1988,
      "video": false,
      "media_type": "movie",
      "id": 7555,
      "adult": false,
      "backdrop_path": "/73QE77hOalLxUiheYJrk9XwHL4h.jpg",
      "original_language": "en",
      "original_title": "Rambo",
      "genre_ids": [
        28,
        53
      ],
      "title": "Rambo",
      "vote_average": 6.5,
      "overview": "When governments fail to act on behalf of captive missionaries, ex-Green Beret John James Rambo sets aside his peaceful existence along the Salween River in a war-torn region of Thailand to take action.  Although he's still haunted by violent memories of his time as a U.S. soldier during the Vietnam War, Rambo can hardly turn his back on the aid workers who so desperately need his help.",
      "release_date": "2008-01-24"
    },
    {
      "poster_path": "/l6zUaYqaQ5TFokesv3BPzBvSN0.jpg",
      "popularity": 20.101,
      "vote_count": 1882,
      "video": false,
      "media_type": "movie",
      "id": 1369,
      "adult": false,
      "backdrop_path": "/tqrN6ZVA2lXeyqSi58kWvNdnzzA.jpg",
      "original_language": "en",
      "original_title": "Rambo: First Blood Part II",
      "genre_ids": [
        28,
        12,
        53,
        10752
      ],
      "title": "Rambo: First Blood Part II",
      "vote_average": 6.4,
      "overview": "John Rambo is released from prison by the government for a top-secret covert mission to the last place on Earth he'd want to return - the jungles of Vietnam.",
      "release_date": "1985-05-21"
    },
    {
      "vote_count": 3207,
      "popularity": 26.246,
      "id": 1368,
      "video": false,
      "media_type": "movie",
      "vote_average": 7.4,
      "title": "First Blood",
      "release_date": "1982-10-22",
      "original_language": "en",
      "original_title": "First Blood",
      "genre_ids": [
        28,
        12,
        53,
        10752
      ],
      "backdrop_path": "/xiBsA8Qj5KhO4cUKz6RHDtKpBGs.jpg",
      "adult": false,
      "overview": "When former Green Beret John Rambo is harassed by local law enforcement and arrested for vagrancy, the Vietnam vet snaps, runs for the hills and rat-a-tat-tats his way into the action-movie hall of fame. Hounded by a relentless sheriff, Rambo employs heavy-handed guerilla tactics to shake the cops off his tail.",
      "poster_path": "/wOsPbJixVc80iilfcByLKPAKz6G.jpg"
    },
    {
      "poster_path": "/oYGk2E24jDsbdEWep5hxQupcLHx.jpg",
      "popularity": 7.509,
      "vote_count": 244,
      "video": false,
      "media_type": "movie",
      "id": 13258,
      "adult": false,
      "backdrop_path": "/hvHdbk37JzrP6mW3jAwjjFW7AIZ.jpg",
      "original_language": "en",
      "original_title": "Son of Rambow",
      "genre_ids": [
        35
      ],
      "title": "Son of Rambow",
      "vote_average": 6.7,
      "overview": "Will Proudfoot (Bill Milner) is looking for an escape from his family's stifling home life when he encounters Lee Carter (Will Poulter), the school bully. Armed with a video camera and a copy of \"Rambo: First Blood\", Lee plans to make cinematic history by filming his own action-packed video epic. Together, these two newfound friends-turned-budding-filmmakers quickly discover that their imaginative ― and sometimes mishap-filled ― cinematic adventure has begun to take on a life of its own!",
      "release_date": "2007-01-22"
    },
    {
      "original_name": "Rambo: The Force of Freedom",
      "genre_ids": [
        10759
      ],
      "media_type": "tv",
      "name": "Rambo: The Force of Freedom",
      "popularity": 5.783,
      "origin_country": [
        "US"
      ],
      "vote_count": 10,
      "first_air_date": "1986-09-15",
      "backdrop_path": "/ze8kqr9p1KfGF8JjoCRcSpgZlrN.jpg",
      "original_language": "en",
      "id": 2762,
      "vote_average": 6.1,
      "overview": "Rambo: The Force of Freedom is an animated series based on the character of John Rambo from David Morrell's book First Blood and the subsequent films First Blood and Rambo: First Blood Part II. This series was adapted for television by story editor/head writer Michael Chain and the series even spawned a toy line. The cartoon ran for 65 episodes, and was produced by Ruby-Spears Enterprises. The series debuted on April 14, 1986 as a five-part miniseries, and was renewed in September as a daily cartoon. Rambo was cancelled in December of the same year.",
      "poster_path": "/6VxKeCxPZBQhfzy4FyixKtxhlbU.jpg"
    },
    {
      "vote_count": 17,
      "popularity": 3.718,
      "id": 159109,
      "video": false,
      "media_type": "movie",
      "vote_average": 5.8,
      "title": "The Rambler",
      "release_date": "2013-01-21",
      "original_language": "en",
      "original_title": "The Rambler",
      "genre_ids": [
        35,
        18,
        27,
        9648
      ],
      "backdrop_path": "/RuJizCQaMuNxys7kMZO6sqOe6y.jpg",
      "adult": false,
      "overview": "After being released from prison, a man known as The Rambler stumbles upon a strange mystery as he attempts a dangerous journey through treacherous back roads and small towns en route to reconnecting with his long lost brother.",
      "poster_path": "/xha2HgUmKhnvT6FzATRksJi3p2I.jpg"
    },
    {
      "vote_count": 0,
      "popularity": 0.6,
      "id": 377976,
      "video": false,
      "media_type": "movie",
      "vote_average": 0,
      "title": "Ramba's love",
      "release_date": "1956-09-28",
      "original_language": "ta",
      "original_title": "Rambayin Kadhal",
      "genre_ids": [],
      "backdrop_path": null,
      "adult": false,
      "overview": "Rambayin kadhal (1939) is a Tamil Language Fantasy Fiction movie starring Thangavelu, Banumathi",
      "poster_path": "/b4i229xvCUTCmLaZN0OrA2itDVf.jpg"
    },
    {
      "poster_path": "/1nkMjjS1zPMQeRcVaK4XDuqPCNU.jpg",
      "popularity": 4.067,
      "vote_count": 30,
      "video": false,
      "media_type": "movie",
      "id": 32221,
      "adult": false,
      "backdrop_path": "/tyxPj6hFm24Qo77CqOgS9ByZS4H.jpg",
      "original_language": "en",
      "original_title": "Rambling Rose",
      "genre_ids": [
        18
      ],
      "title": "Rambling Rose",
      "vote_average": 6.6,
      "overview": "Rose, is taken in by the Hillyer family to serve as a 1930s housemaid so that she can avoid falling into a life of prostitution. Rose's appearence and personality is such that all men fall for her, and Rose knows it. She can't help herself from getting into trouble with men.",
      "release_date": "1991-09-10"
    },
    {
      "poster_path": "/8WHzOXKQBx83tr8ZBYlfttl8YEl.jpg",
      "popularity": 3.159,
      "vote_count": 0,
      "video": false,
      "media_type": "movie",
      "id": 458578,
      "adult": false,
      "backdrop_path": null,
      "original_language": "hi",
      "original_title": "Rambo",
      "genre_ids": [
        28
      ],
      "title": "Rambo",
      "vote_average": 0,
      "overview": "The action film will follow the last surviving member of an elite covert unit of the Indian Armed forces who returns home to discover a war waging in his own land. Forced into the dangerous jungles and frozen mountains of the Himalayas, he unleashes mayhem and destruction, becoming the unstoppable machine he was trained to be.",
      "release_date": "2020-10-02"
    },
    {
      "vote_count": 55,
      "popularity": 3.612,
      "id": 240614,
      "video": false,
      "media_type": "movie",
      "vote_average": 6.2,
      "title": "R... Rajkumar",
      "release_date": "2013-12-06",
      "original_language": "hi",
      "original_title": "आर... राजकुमार",
      "genre_ids": [
        28,
        10749
      ],
      "backdrop_path": "/4FKWDZv2gIPO4kv4dksIdrt6MCY.jpg",
      "adult": false,
      "overview": "Rajkumar, an aimless youth, works for a drug baron and is sent to kill a rival dealer. His life is changed forever when he meets Chanda, and has no idea she is the adopted daughter of the man he is supposed to kill.",
      "poster_path": "/2wURYkClPhuWaZz936eUEWWVzUM.jpg"
    },
    {
      "poster_path": "/zpfWNW5CHbPHHSPb5uuMqopYfuf.jpg",
      "popularity": 2.431,
      "vote_count": 10,
      "video": false,
      "media_type": "movie",
      "id": 17288,
      "adult": false,
      "backdrop_path": "/usZyWiogdUOmMTdsS7n6MRiHbZ4.jpg",
      "original_language": "tr",
      "original_title": "Korkusuz",
      "genre_ids": [
        28,
        12
      ],
      "title": "Rampage",
      "vote_average": 4.2,
      "overview": "A Turkish commando must infiltrate and capture a group of terrorists living in the mountains.",
      "release_date": "1986-06-12"
    },
    {
      "vote_count": 0,
      "popularity": 0.6,
      "id": 476118,
      "video": false,
      "media_type": "movie",
      "vote_average": 0,
      "title": "Ungarala Rambabu",
      "release_date": "2017-09-15",
      "original_language": "te",
      "original_title": "Ungarala Rambabu",
      "genre_ids": [
        10749,
        35
      ],
      "backdrop_path": "/dXS5hV8RZ0YetSnbhnzs7SmQdTq.jpg",
      "adult": false,
      "overview": "A man has to prove his worth to the father of the woman he loves. What happens when capitalist and communist ideologies collide, will Rambabu be able to achieve what he set out for?",
      "poster_path": "/nUO5jIslzaJMtylPCu2dmXaP1KO.jpg"
    },
    {
      "vote_count": 1,
      "popularity": 0.718,
      "id": 612866,
      "video": false,
      "media_type": "movie",
      "vote_average": 5,
      "title": "Behind Natacha Rambova's Shadow",
      "release_date": "2019-07-06",
      "original_language": "ca",
      "original_title": "Darrere l'ombra de Natacha Rambova",
      "genre_ids": [
        99
      ],
      "backdrop_path": "/6g4kiYGbVPQPwj5eptRrgf7RM3U.jpg",
      "adult": false,
      "overview": "The adventurous life of Natacha Rambova (1897-1966), an American artist, born Winifred Kimball Shaughnessy, who reincarnated herself countless times: false Russian dancer, silent film actress, scenographer and costume designer, writer, spiritist, Egyptologist, indefatigable traveler, mysterious and curious; an amazing 20th century woman who created the myth of Rudolph Valentino.",
      "poster_path": "/45AETc2BItaDLb1YCh0oQ8BsfKS.jpg"
    },
    {
      "vote_count": 0,
      "popularity": 0.6,
      "id": 587120,
      "video": false,
      "media_type": "movie",
      "vote_average": 0,
      "title": "Arthur Rambo",
      "release_date": "",
      "original_language": "fr",
      "original_title": "Arthur Rambo",
      "genre_ids": [],
      "backdrop_path": null,
      "adult": false,
      "overview": "Alain is a little boy from the Reunion Island born on the wrong side of the tracks. To earn a few pennies, he recites Arthur Rimbaud’s poems to drivers stuck at the red light. One day, Alain is invited to Guillaume's birthday who lives uptown.",
      "poster_path": "/rIcGPxtDYspA8vMl5TzgNtj5jje.jpg"
    },
    {
      "vote_count": 0,
      "popularity": 0.6,
      "id": 472586,
      "video": false,
      "media_type": "movie",
      "vote_average": 0,
      "title": "My Beautiful Rambutan Tree in Tanjung Rambutan",
      "release_date": "2006-05-23",
      "original_language": "ms",
      "original_title": "Sepohon Rambutan indah kepunyaanku di tanjung rambutan",
      "genre_ids": [],
      "backdrop_path": null,
      "adult": false,
      "overview": "Atan and Tina are brother and sister. They live surrounded by love in a comfortable house. They play and fight as siblings often do and their parents have no qualms about leaving them alone for an evening while they attend a wedding feast. Tonight, Tina pushes Atan to the breaking point - taking advantage of him as she tends to do too often. Atan's reactions will have disastrous consequences.",
      "poster_path": "/QjClU3GymwBziBFUlQByEuEqGq.jpg"
    },
    {
      "vote_count": 5,
      "popularity": 0.761,
      "id": 81944,
      "video": false,
      "media_type": "movie",
      "vote_average": 4.7,
      "title": "Rambu",
      "release_date": "1986-05-08",
      "original_language": "en",
      "original_title": "The Intruder",
      "genre_ids": [
        28,
        80,
        53
      ],
      "backdrop_path": null,
      "adult": false,
      "overview": "They've beaten and tortured him. They've raped and killed his woman. But they've made one big mistake. They didn't kill him. Alex Trambuan, known to his friends as Rambu, is a lone vigilante and former police officer who takes revenge on the entire Columbian drug cartel that killed his wife. There can be only one winner in this game of death, his name is Rambu, this is his private war and this city will never forget his legacy of vengeance.",
      "poster_path": "/bOJxqnMeJNriaKXHnuYWgrLGRVI.jpg"
    },
    {
      "vote_count": 3,
      "popularity": 0.718,
      "id": 30518,
      "video": false,
      "media_type": "movie",
      "vote_average": 6.3,
      "title": "Ramblers",
      "release_date": "2003-09-10",
      "original_language": "ja",
      "original_title": "リアリズムの宿",
      "genre_ids": [
        35
      ],
      "backdrop_path": "/u2Uvq0AVwjYlF04voQRTUHA6xvk.jpg",
      "adult": false,
      "overview": "Tsuboi and Kinoshita have just arrived at a desolate town. Both of them are amateur filmmakers. Tsuboi is a screenwriter and Kinoshita a director. They have come to this town because Funaki, an actor, has tempted them to come here, but he has yet to arrive. Tsuboi and Kinoshita start wandering around the town and happen to meet a young woman, Atsuko. The three of them go on a journey together and become friends. But one day, Atsuko disappears.",
      "poster_path": "/sWn8FScQJE6IbwuYTIuvt7BwR92.jpg"
    },
    {
      "vote_count": 1,
      "popularity": 0.697,
      "id": 547428,
      "video": false,
      "media_type": "movie",
      "vote_average": 7,
      "title": "Abdo Challenges Rambo",
      "release_date": "1990-06-13",
      "original_language": "en",
      "original_title": "عبده يتحدى رامبو",
      "genre_ids": [],
      "backdrop_path": null,
      "adult": false,
      "overview": "The play revolves around Abdo (Mohammad Najm), who works at Amani (Vivian) in a strange job, to prevent her from interviewing Shaukat (Mahmoud al-Qal'awi) her ex-husband who tries to exploit her and grab her money but does not know how to get away from him even though she knows well his bad intentions . (Abdu) agrees to a physical reward of half a million pounds to prevent her from making mistakes. Abdu tries to prevent her husband from stealing her money because of his strange job.",
      "poster_path": "/mZ2xfZzbwA304WyT7dd9P6AuywD.jpg"
    }
  ]
}